{
  "type": "object",
  "location": "json",
  "properties": {
    "package": {
      "type": "object",
      "properties": {
        "name": {
          "type": "string"
        },
        "totalPrice": {
          "type": "integer"
        },
        "totalTax": {
          "type": "integer"
        },
        "currency": {
          "type": "string"
        },
        "locale": {
          "type": "string"
        },
        "items": {
          "type": "array",
          "items": [
            {
              "type": "object",
              "properties": {
                "type": {
                  "type": "string"
                },
                "itinerary": {
                  "type": "string"
                },
                "userEmail": {
                  "type": "string"
                },
                "userFirstName": {
                  "type": "string"
                },
                "userLastName": {
                  "type": "string"
                },
                "userPhone": {
                  "type": "string"
                },
                "agentEmail": {
                  "type": "string"
                },
                "comments": {
                  "type": "string"
                },
                "additionalInfo": {
                  "type": "string"
                },
                "supplierName": {
                  "type": "string"
                },
                "supplierConfirmationNumber": {
                  "type": "string"
                },
                "property": {
                  "type": "object",
                  "properties": {
                    "contactEmail": {
                      "type": "string"
                    },
                    "directContract": {
                      "type": "boolean"
                    },
                    "userCreditCard": {
                      "type": "object",
                      "properties": {
                        "last4Digits": {
                          "type": "string"
                        }
                      },
                      "required": [
                        "last4Digits"
                      ]
                    }
                  },
                  "required": [
                    "contactEmail",
                    "directContract",
                    "userCreditCard"
                  ]
                }
              },
              "required": [
                "type",
                "itinerary",
                "userEmail",
                "userFirstName",
                "userLastName",
                "userPhone",
                "agentEmail",
                "comments",
                "additionalInfo",
                "supplierName",
                "supplierConfirmationNumber",
                "property"
              ]
            },
            {
              "type": "object",
              "properties": {
                "type": {
                  "type": "string"
                },
                "itinerary": {
                  "type": "string"
                },
                "userEmail": {
                  "type": "string"
                },
                "userFirstName": {
                  "type": "string"
                },
                "userLastName": {
                  "type": "string"
                },
                "userPhone": {
                  "type": "string"
                },
                "agentEmail": {
                  "type": "string"
                },
                "comments": {
                  "type": "string"
                },
                "additionalInfo": {
                  "type": "string"
                },
                "supplierName": {
                  "type": "string"
                },
                "supplierConfirmationNumber": {
                  "type": "string"
                },
                "property": {
                  "type": "object",
                  "properties": {
                    "contactEmail": {
                      "type": "string"
                    },
                    "directContract": {
                      "type": "boolean"
                    },
                    "userCreditCard": {
                      "type": "object",
                      "properties": {
                        "last4Digits": {
                          "type": "string"
                        }
                      },
                      "required": [
                        "last4Digits"
                      ]
                    }
                  },
                  "required": [
                    "contactEmail",
                    "directContract",
                    "userCreditCard"
                  ]
                }
              },
              "required": [
                "type",
                "itinerary",
                "userEmail",
                "userFirstName",
                "userLastName",
                "userPhone",
                "agentEmail",
                "comments",
                "additionalInfo",
                "supplierName",
                "supplierConfirmationNumber",
                "property"
              ]
            },
            {
              "type": "object",
              "properties": {
                "type": {
                  "type": "string"
                },
                "itinerary": {
                  "type": "string"
                },
                "userEmail": {
                  "type": "string"
                },
                "userFirstName": {
                  "type": "string"
                },
                "userLastName": {
                  "type": "string"
                },
                "userPhone": {
                  "type": "string"
                },
                "agentEmail": {
                  "type": "string"
                },
                "comments": {
                  "type": "string"
                },
                "additionalInfo": {
                  "type": "string"
                },
                "supplierName": {
                  "type": "string"
                },
                "supplierConfirmationNumber": {
                  "type": "string"
                },
                "property": {
                  "type": "object",
                  "properties": {
                    "contactEmail": {
                      "type": "string"
                    },
                    "directContract": {
                      "type": "boolean"
                    },
                    "userCreditCard": {
                      "type": "object",
                      "properties": {
                        "last4Digits": {
                          "type": "string"
                        }
                      },
                      "required": [
                        "last4Digits"
                      ]
                    }
                  },
                  "required": [
                    "contactEmail",
                    "directContract",
                    "userCreditCard"
                  ]
                }
              },
              "required": [
                "type",
                "itinerary",
                "userEmail",
                "userFirstName",
                "userLastName",
                "userPhone",
                "agentEmail",
                "comments",
                "additionalInfo",
                "supplierName",
                "supplierConfirmationNumber",
                "property"
              ]
            },
            {
              "type": "object",
              "properties": {
                "type": {
                  "type": "string"
                },
                "itinerary": {
                  "type": "string"
                },
                "supplierName": {
                  "type": "string"
                },
                "supplierConfirmationNumber": {
                  "type": "string"
                },
                "passengers": {
                  "type": "array",
                  "items": [
                    {
                      "type": "object",
                      "properties": {
                        "title": {
                          "type": "string"
                        },
                        "firstName": {
                          "type": "string"
                        },
                        "lastName": {
                          "type": "string"
                        },
                        "passengerType": {
                          "type": "string"
                        },
                        "tickets": {
                          "type": "array",
                          "items": [
                            {
                              "type": "object",
                              "properties": {
                                "number": {
                                  "type": "string"
                                },
                                "seat": {
                                  "type": "string"
                                },
                                "operating": {
                                  "type": "object",
                                  "properties": {
                                    "carrier": {
                                      "type": "string"
                                    },
                                    "flightNumber": {
                                      "type": "string"
                                    }
                                  },
                                  "required": [
                                    "carrier",
                                    "flightNumber"
                                  ]
                                }
                              },
                              "required": [
                                "number",
                                "seat",
                                "operating"
                              ]
                            },
                            {
                              "type": "object",
                              "properties": {
                                "number": {
                                  "type": "string"
                                },
                                "seat": {
                                  "type": "string"
                                },
                                "operating": {
                                  "type": "object",
                                  "properties": {
                                    "carrier": {
                                      "type": "string"
                                    },
                                    "flightNumber": {
                                      "type": "string"
                                    }
                                  },
                                  "required": [
                                    "carrier",
                                    "flightNumber"
                                  ]
                                }
                              },
                              "required": [
                                "number",
                                "seat",
                                "operating"
                              ]
                            },
                            {
                              "type": "object",
                              "properties": {
                                "number": {
                                  "type": "string"
                                },
                                "seat": {
                                  "type": "string"
                                },
                                "operating": {
                                  "type": "object",
                                  "properties": {
                                    "carrier": {
                                      "type": "string"
                                    },
                                    "flightNumber": {
                                      "type": "string"
                                    }
                                  },
                                  "required": [
                                    "carrier",
                                    "flightNumber"
                                  ]
                                }
                              },
                              "required": [
                                "number",
                                "seat",
                                "operating"
                              ]
                            }
                          ]
                        },
                        "specialRequest": {
                          "type": "string"
                        }
                      },
                      "required": [
                        "title",
                        "firstName",
                        "lastName",
                        "passengerType",
                        "tickets",
                        "specialRequest"
                      ]
                    },
                    {
                      "type": "object",
                      "properties": {
                        "title": {
                          "type": "string"
                        },
                        "firstName": {
                          "type": "string"
                        },
                        "lastName": {
                          "type": "string"
                        },
                        "passengerType": {
                          "type": "string"
                        },
                        "tickets": {
                          "type": "array",
                          "items": [
                            {
                              "type": "object",
                              "properties": {
                                "number": {
                                  "type": "string"
                                },
                                "seat": {
                                  "type": "string"
                                },
                                "operating": {
                                  "type": "object",
                                  "properties": {
                                    "carrier": {
                                      "type": "string"
                                    },
                                    "flightNumber": {
                                      "type": "string"
                                    }
                                  },
                                  "required": [
                                    "carrier",
                                    "flightNumber"
                                  ]
                                }
                              },
                              "required": [
                                "number",
                                "seat",
                                "operating"
                              ]
                            },
                            {
                              "type": "object",
                              "properties": {
                                "number": {
                                  "type": "string"
                                },
                                "seat": {
                                  "type": "string"
                                },
                                "operating": {
                                  "type": "object",
                                  "properties": {
                                    "carrier": {
                                      "type": "string"
                                    },
                                    "flightNumber": {
                                      "type": "string"
                                    }
                                  },
                                  "required": [
                                    "carrier",
                                    "flightNumber"
                                  ]
                                }
                              },
                              "required": [
                                "number",
                                "seat",
                                "operating"
                              ]
                            },
                            {
                              "type": "object",
                              "properties": {
                                "number": {
                                  "type": "string"
                                },
                                "seat": {
                                  "type": "string"
                                },
                                "operating": {
                                  "type": "object",
                                  "properties": {
                                    "carrier": {
                                      "type": "string"
                                    },
                                    "flightNumber": {
                                      "type": "string"
                                    }
                                  },
                                  "required": [
                                    "carrier",
                                    "flightNumber"
                                  ]
                                }
                              },
                              "required": [
                                "number",
                                "seat",
                                "operating"
                              ]
                            }
                          ]
                        },
                        "specialRequest": {
                          "type": "string"
                        }
                      },
                      "required": [
                        "title",
                        "firstName",
                        "lastName",
                        "passengerType",
                        "tickets",
                        "specialRequest"
                      ]
                    }
                  ]
                }
              },
              "required": [
                "type",
                "itinerary",
                "supplierName",
                "supplierConfirmationNumber",
                "passengers"
              ]
            },
            {
              "type": "object",
              "properties": {
                "type": {
                  "type": "string"
                },
                "itinerary": {
                  "type": "string"
                },
                "supplierName": {
                  "type": "string"
                },
                "supplierConfirmationNumber": {
                  "type": "string"
                },
                "passengers": {
                  "type": "array",
                  "items": [
                    {
                      "type": "object",
                      "properties": {
                        "title": {
                          "type": "string"
                        },
                        "firstName": {
                          "type": "string"
                        },
                        "lastName": {
                          "type": "string"
                        },
                        "passengerType": {
                          "type": "string"
                        },
                        "tickets": {
                          "type": "array",
                          "items": [
                            {
                              "type": "object",
                              "properties": {
                                "number": {
                                  "type": "string"
                                },
                                "seat": {
                                  "type": "string"
                                },
                                "operating": {
                                  "type": "object",
                                  "properties": {
                                    "carrier": {
                                      "type": "string"
                                    },
                                    "flightNumber": {
                                      "type": "string"
                                    }
                                  },
                                  "required": [
                                    "carrier",
                                    "flightNumber"
                                  ]
                                }
                              },
                              "required": [
                                "number",
                                "seat",
                                "operating"
                              ]
                            },
                            {
                              "type": "object",
                              "properties": {
                                "number": {
                                  "type": "string"
                                },
                                "seat": {
                                  "type": "string"
                                },
                                "operating": {
                                  "type": "object",
                                  "properties": {
                                    "carrier": {
                                      "type": "string"
                                    },
                                    "flightNumber": {
                                      "type": "string"
                                    }
                                  },
                                  "required": [
                                    "carrier",
                                    "flightNumber"
                                  ]
                                }
                              },
                              "required": [
                                "number",
                                "seat",
                                "operating"
                              ]
                            },
                            {
                              "type": "object",
                              "properties": {
                                "number": {
                                  "type": "string"
                                },
                                "seat": {
                                  "type": "string"
                                },
                                "operating": {
                                  "type": "object",
                                  "properties": {
                                    "carrier": {
                                      "type": "string"
                                    },
                                    "flightNumber": {
                                      "type": "string"
                                    }
                                  },
                                  "required": [
                                    "carrier",
                                    "flightNumber"
                                  ]
                                }
                              },
                              "required": [
                                "number",
                                "seat",
                                "operating"
                              ]
                            }
                          ]
                        },
                        "specialRequest": {
                          "type": "string"
                        }
                      },
                      "required": [
                        "title",
                        "firstName",
                        "lastName",
                        "passengerType",
                        "tickets",
                        "specialRequest"
                      ]
                    },
                    {
                      "type": "object",
                      "properties": {
                        "title": {
                          "type": "string"
                        },
                        "firstName": {
                          "type": "string"
                        },
                        "lastName": {
                          "type": "string"
                        },
                        "passengerType": {
                          "type": "string"
                        },
                        "tickets": {
                          "type": "array",
                          "items": [
                            {
                              "type": "object",
                              "properties": {
                                "number": {
                                  "type": "string"
                                },
                                "seat": {
                                  "type": "string"
                                },
                                "operating": {
                                  "type": "object",
                                  "properties": {
                                    "carrier": {
                                      "type": "string"
                                    },
                                    "flightNumber": {
                                      "type": "string"
                                    }
                                  },
                                  "required": [
                                    "carrier",
                                    "flightNumber"
                                  ]
                                }
                              },
                              "required": [
                                "number",
                                "seat",
                                "operating"
                              ]
                            },
                            {
                              "type": "object",
                              "properties": {
                                "number": {
                                  "type": "string"
                                },
                                "seat": {
                                  "type": "string"
                                },
                                "operating": {
                                  "type": "object",
                                  "properties": {
                                    "carrier": {
                                      "type": "string"
                                    },
                                    "flightNumber": {
                                      "type": "string"
                                    }
                                  },
                                  "required": [
                                    "carrier",
                                    "flightNumber"
                                  ]
                                }
                              },
                              "required": [
                                "number",
                                "seat",
                                "operating"
                              ]
                            },
                            {
                              "type": "object",
                              "properties": {
                                "number": {
                                  "type": "string"
                                },
                                "seat": {
                                  "type": "string"
                                },
                                "operating": {
                                  "type": "object",
                                  "properties": {
                                    "carrier": {
                                      "type": "string"
                                    },
                                    "flightNumber": {
                                      "type": "string"
                                    }
                                  },
                                  "required": [
                                    "carrier",
                                    "flightNumber"
                                  ]
                                }
                              },
                              "required": [
                                "number",
                                "seat",
                                "operating"
                              ]
                            }
                          ]
                        },
                        "specialRequest": {
                          "type": "string"
                        }
                      },
                      "required": [
                        "title",
                        "firstName",
                        "lastName",
                        "passengerType",
                        "tickets",
                        "specialRequest"
                      ]
                    }
                  ]
                }
              },
              "required": [
                "type",
                "itinerary",
                "supplierName",
                "supplierConfirmationNumber",
                "passengers"
              ]
            }
          ]
        }
      },
      "required": [
        "name",
        "totalPrice",
        "totalTax",
        "currency",
        "locale",
        "items"
      ]
    }
  }
}